…
```r
start <- today() - years(1)
  end <- today()
```

My Picks

```r
(AmericanAir <- tq_get("AAl", get = "stock.prices", from = start, to = end))
```

```
## # A tibble: 252 x 8
##    symbol date        open  high   low close    volume adjusted
##    <chr>  <date>     <dbl> <dbl> <dbl> <dbl>     <dbl>    <dbl>
##  1 AAl    2020-11-09  14.3  14.4  12.8  13.2 231326200     13.2
##  2 AAl    2020-11-10  12.8  13.0  12.3  12.4 127529300     12.4
##  3 AAl    2020-11-11  12.4  12.5  11.9  12.0  81359600     12.0
##  4 AAl    2020-11-12  12.0  12.2  11.6  11.7  75511700     11.7
##  5 AAl    2020-11-13  11.9  12.2  11.8  12.2  56421500     12.2
##  6 AAl    2020-11-16  12.9  13.0  12.4  12.8 104867800     12.8
##  7 AAl    2020-11-17  12.5  12.8  12.2  12.7  61956500     12.7
##  8 AAl    2020-11-18  12.9  13.4  12.7  12.7  99888500     12.7
##  9 AAl    2020-11-19  12.7  13.0  12.6  12.8  58809400     12.8
## 10 AAl    2020-11-20  12.8  12.9  12.5  12.5  58685500     12.5
## # … with 242 more rows
```

```r
(Tmobile <- tq_get("TMUS", get = "stock.prices", from = start, to = end))
```

```
## # A tibble: 252 x 8
##    symbol date        open  high   low close  volume adjusted
##    <chr>  <date>     <dbl> <dbl> <dbl> <dbl>   <dbl>    <dbl>
##  1 TMUS   2020-11-09  125.  127.  123.  123. 6190600     123.
##  2 TMUS   2020-11-10  119.  123.  119.  122. 4454400     122.
##  3 TMUS   2020-11-11  123.  126.  122.  125. 3931600     125.
##  4 TMUS   2020-11-12  125.  128.  125.  127. 3557800     127.
##  5 TMUS   2020-11-13  127.  129.  126.  128. 3397600     128.
##  6 TMUS   2020-11-16  130.  130.  128.  129. 3444500     129.
##  7 TMUS   2020-11-17  131.  132.  129.  129  3648500     129 
##  8 TMUS   2020-11-18  130.  131.  128.  128. 3222900     128.
##  9 TMUS   2020-11-19  127.  130.  127.  129. 2427000     129.
## 10 TMUS   2020-11-20  130.  130.  128.  130. 4387800     130.
## # … with 242 more rows
```

```r
(Mircosoft <- tq_get("MSFT", get = "stock.prices", from = start, to = end))
```

```
## # A tibble: 252 x 8
##    symbol date        open  high   low close   volume adjusted
##    <chr>  <date>     <dbl> <dbl> <dbl> <dbl>    <dbl>    <dbl>
##  1 MSFT   2020-11-09  224.  228.  218.  218. 44395000     216.
##  2 MSFT   2020-11-10  214.  216.  210.  211. 44045100     209.
##  3 MSFT   2020-11-11  212.  218.  212.  217. 29440800     215.
##  4 MSFT   2020-11-12  217.  219.  214.  215. 21593900     213.
##  5 MSFT   2020-11-13  216.  217.  214.  217. 18621100     215.
##  6 MSFT   2020-11-16  215.  218.  215.  217. 24953300     215.
##  7 MSFT   2020-11-17  216.  218.  214.  214. 24154100     213.
##  8 MSFT   2020-11-18  214.  215.  211.  211. 28372800     210.
##  9 MSFT   2020-11-19  211.  213.  210.  212. 24792700     211.
## 10 MSFT   2020-11-20  212.  213.  210   210. 22843100     209.
## # … with 242 more rows
```
Friend's Picks

```r
(Kellogg <- tq_get("K", get = "stock.prices", from = start, to = end))
```

```
## # A tibble: 252 x 8
##    symbol date        open  high   low close  volume adjusted
##    <chr>  <date>     <dbl> <dbl> <dbl> <dbl>   <dbl>    <dbl>
##  1 K      2020-11-09  64.6  65.1  62.9  63.0 2921100     60.7
##  2 K      2020-11-10  62.9  64.3  62.1  64.2 3262900     61.9
##  3 K      2020-11-11  64.4  65.7  64.1  65.6 1653900     63.2
##  4 K      2020-11-12  65.6  65.7  64.6  65.1 1999300     62.7
##  5 K      2020-11-13  65.7  65.8  65.1  65.8 1049500     63.4
##  6 K      2020-11-16  65.5  66.6  65.0  66.6 1710300     64.2
##  7 K      2020-11-17  66.2  67.0  65.9  66.3 1250500     63.9
##  8 K      2020-11-18  66.4  66.6  65    65.0 1208700     62.7
##  9 K      2020-11-19  65.0  65.4  64.4  65.2 1140600     62.8
## 10 K      2020-11-20  65.2  65.4  64.5  65.0 1785900     62.6
## # … with 242 more rows
```

```r
(AMC <- tq_get("AMC", get = "stock.prices",from = start, to = end))
```

```
## # A tibble: 252 x 8
##    symbol date        open  high   low close    volume adjusted
##    <chr>  <date>     <dbl> <dbl> <dbl> <dbl>     <dbl>    <dbl>
##  1 AMC    2020-11-09  4.27  4.39  3.23  3.77 132511000     3.77
##  2 AMC    2020-11-10  3.99  4.03  3.34  3.51  42129300     3.51
##  3 AMC    2020-11-11  3.23  3.24  3     3.13  24066100     3.13
##  4 AMC    2020-11-12  3.07  3.07  2.92  2.94  14729000     2.94
##  5 AMC    2020-11-13  2.98  2.99  2.78  2.97  21995400     2.97
##  6 AMC    2020-11-16  3.39  3.39  3.05  3.11  47604300     3.11
##  7 AMC    2020-11-17  3.01  3.04  2.9   2.98  22483000     2.98
##  8 AMC    2020-11-18  3.08  3.37  3.01  3.26  31717300     3.26
##  9 AMC    2020-11-19  3.16  3.38  3.15  3.19  13986400     3.19
## 10 AMC    2020-11-20  3.25  3.37  3.21  3.35  17088800     3.35
## # … with 242 more rows
```

```r
(Disney <- tq_get("DIS", get = "stock.prices", from = start, to = end))
```

```
## # A tibble: 252 x 8
##    symbol date        open  high   low close   volume adjusted
##    <chr>  <date>     <dbl> <dbl> <dbl> <dbl>    <dbl>    <dbl>
##  1 DIS    2020-11-09  140.  148.  138.  143. 35634700     143.
##  2 DIS    2020-11-10  140.  142.  138.  142. 18115400     142.
##  3 DIS    2020-11-11  141.  142   137.  138.  9600900     138.
##  4 DIS    2020-11-12  136.  138.  134.  136. 13768200     136.
##  5 DIS    2020-11-13  141.  141.  137.  138. 21062300     138.
##  6 DIS    2020-11-16  142.  145.  142.  145. 16382500     145.
##  7 DIS    2020-11-17  144.  145.  143.  144.  9354900     144.
##  8 DIS    2020-11-18  144.  145.  143.  144.  9456200     144.
##  9 DIS    2020-11-19  143.  143.  142.  142.  8892500     142.
## 10 DIS    2020-11-20  142.  143.  141.  141.  8481600     141.
## # … with 242 more rows
```
…
